%YAML 1.1
%TAG !u! tag:unity3d.com,2011:
--- !u!1045 &1
EditorBuildSettings:
  m_ObjectHideFlags: 0
  serializedVersion: 2
  m_Scenes:
  - enabled: 1
    path: Assets/Scenes/MainMenu.unity
    guid: 9fc0d4010bbf28b4594072e72b8655ab
  - enabled: 1
    path: Assets/Scenes/Cinematic.unity
    guid: ddfb3209cdb0348ecad5ddb6342ea405
  - enabled: 1
    path: Assets/Scenes/Aldea.unity
    guid: f26a4f740ef1143c29d5c1c82ef59a6b
  - enabled: 1
    path: Assets/Scenes/Bar.unity
    guid: 0da4b2e77c97b432faff511130c113b6
  - enabled: 1
    path: Assets/Scenes/CasaPepiYFresi.unity
    guid: bcd8591ba25c4466e90bf7ad1cb09246
  - enabled: 1
    path: Assets/Scenes/SotanoCasaPepiYFresi.unity
    guid: 189aad94c706543e29ea1cce866a49d6
  m_configObjects: {}
  m_UseUCBPForAssetBundles: 0
