%YAML 1.1
%TAG !u! tag:unity3d.com,2011:
--- !u!1001 &8488003575396671474
PrefabInstance:
  m_ObjectHideFlags: 0
  serializedVersion: 2
  m_Modification:
    serializedVersion: 3
    m_TransformParent: {fileID: 0}
    m_Modifications:
    - target: {fileID: -8874964412867885385, guid: 19da81404509a2348ad07213835e3bed, type: 3}
      propertyPath: m_LocalScale.x
      value: 0.01
      objectReference: {fileID: 0}
    - target: {fileID: -8874964412867885385, guid: 19da81404509a2348ad07213835e3bed, type: 3}
      propertyPath: m_LocalScale.y
      value: 0.01
      objectReference: {fileID: 0}
    - target: {fileID: -8874964412867885385, guid: 19da81404509a2348ad07213835e3bed, type: 3}
      propertyPath: m_LocalScale.z
      value: 0.01
      objectReference: {fileID: 0}
    - target: {fileID: -8874964412867885385, guid: 19da81404509a2348ad07213835e3bed, type: 3}
      propertyPath: m_LocalPosition.y
      value: 0
      objectReference: {fileID: 0}
    - target: {fileID: -8874964412867885385, guid: 19da81404509a2348ad07213835e3bed, type: 3}
      propertyPath: m_LocalPosition.z
      value: -0.434
      objectReference: {fileID: 0}
    - target: {fileID: -8874964412867885385, guid: 19da81404509a2348ad07213835e3bed, type: 3}
      propertyPath: m_ConstrainProportionsScale
      value: 1
      objectReference: {fileID: 0}
    - target: {fileID: -8679921383154817045, guid: 19da81404509a2348ad07213835e3bed, type: 3}
      propertyPath: m_RootOrder
      value: 0
      objectReference: {fileID: 0}
    - target: {fileID: -8679921383154817045, guid: 19da81404509a2348ad07213835e3bed, type: 3}
      propertyPath: m_LocalPosition.x
      value: 93.893074
      objectReference: {fileID: 0}
    - target: {fileID: -8679921383154817045, guid: 19da81404509a2348ad07213835e3bed, type: 3}
      propertyPath: m_LocalPosition.y
      value: 0.45448208
      objectReference: {fileID: 0}
    - target: {fileID: -8679921383154817045, guid: 19da81404509a2348ad07213835e3bed, type: 3}
      propertyPath: m_LocalPosition.z
      value: 22.57678
      objectReference: {fileID: 0}
    - target: {fileID: -8679921383154817045, guid: 19da81404509a2348ad07213835e3bed, type: 3}
      propertyPath: m_LocalRotation.w
      value: 1
      objectReference: {fileID: 0}
    - target: {fileID: -8679921383154817045, guid: 19da81404509a2348ad07213835e3bed, type: 3}
      propertyPath: m_LocalRotation.x
      value: 0
      objectReference: {fileID: 0}
    - target: {fileID: -8679921383154817045, guid: 19da81404509a2348ad07213835e3bed, type: 3}
      propertyPath: m_LocalRotation.y
      value: -0
      objectReference: {fileID: 0}
    - target: {fileID: -8679921383154817045, guid: 19da81404509a2348ad07213835e3bed, type: 3}
      propertyPath: m_LocalRotation.z
      value: -0
      objectReference: {fileID: 0}
    - target: {fileID: -8679921383154817045, guid: 19da81404509a2348ad07213835e3bed, type: 3}
      propertyPath: m_LocalEulerAnglesHint.x
      value: 0
      objectReference: {fileID: 0}
    - target: {fileID: -8679921383154817045, guid: 19da81404509a2348ad07213835e3bed, type: 3}
      propertyPath: m_LocalEulerAnglesHint.y
      value: 0
      objectReference: {fileID: 0}
    - target: {fileID: -8679921383154817045, guid: 19da81404509a2348ad07213835e3bed, type: 3}
      propertyPath: m_LocalEulerAnglesHint.z
      value: 0
      objectReference: {fileID: 0}
    - target: {fileID: -4929363789341574723, guid: 19da81404509a2348ad07213835e3bed, type: 3}
      propertyPath: m_Enabled
      value: 1
      objectReference: {fileID: 0}
    - target: {fileID: -4929363789341574723, guid: 19da81404509a2348ad07213835e3bed, type: 3}
      propertyPath: 'm_Materials.Array.data[0]'
      value: 
      objectReference: {fileID: 2100000, guid: 4fd842a055dbfe94d924fdbb610e573c, type: 2}
    - target: {fileID: 919132149155446097, guid: 19da81404509a2348ad07213835e3bed, type: 3}
      propertyPath: m_Name
      value: Grass Variant
      objectReference: {fileID: 0}
    m_RemovedComponents: []
    m_RemovedGameObjects: []
    m_AddedGameObjects: []
    m_AddedComponents: []
  m_SourcePrefab: {fileID: 100100000, guid: 19da81404509a2348ad07213835e3bed, type: 3}
